Foundations of Data Science - 5 Data Access
…
┌─────────┬─────────┬───────┬────────────┬────────┐
│   id    │  name   │ math  │ statistics │ weight │
│ varchar │ varchar │ int64 │   int64    │ double │
├─────────┼─────────┼───────┼────────────┼────────┤
│ A00123  │ David   │    70 │         86 │  156.3 │
│ B00422  │ Andrew  │    89 │         80 │  210.6 │
│ C004543 │ Tobias  │    79 │         90 │  167.0 │
└─────────┴─────────┴───────┴────────────┴────────┘

To read a directory of Parquet files, you can use wildcard syntax in the path of the read_parquet() function:

duckdb.read_parquet('../datasets/Parquet/userdata/user*.parquet')

┌─────────────────────┬───────┬────────────┬───┬────────────┬───────────┬──────────────────────┬──────────────────────┐
│  registration_dttm  │  id   │ first_name │ … │ birthdate  │  salary   │        title         │       comments       │
│      timestamp      │ int32 │  varchar   │   │  varchar   │  double   │       varchar        │       varchar        │
├─────────────────────┼───────┼────────────┼───┼────────────┼───────────┼──────────────────────┼──────────────────────┤
│ 2016-02-03 16:07:46 │     1 │ Ernest     │ … │            │ 140639.36 │                      │                      │
│ 2016-02-03 21:52:07 │     2 │ Anthony    │ … │ 1/16/1998  │ 172843.61 │ Developer II         │ 👾 🙇 💁 🙅 🙆 🙋 …  │
│ 2016-02-03 02:22:19 │     3 │ Ryan       │ … │ 11/21/1978 │ 204620.66 │ Developer I          │ ␢                    │
│ 2016-02-03 04:20:04 │     4 │ Brenda     │ … │ 10/29/1998 │ 260474.12 │ GIS Technical Arch…  │                      │
│ 2016-02-03 00:15:16 │     5 │ Jacqueline │ … │ 7/12/1959  │ 286038.78 │ Marketing Assistant  │                      │
│ 2016-02-03 19:48:14 │     6 │ Paul       │ … │            │ 241518.24 │                      │                      │
│ 2016-02-03 08:59:05 │     7 │ Linda      │ … │ 3/30/1988  │ 192756.38 │ Professor            │                      │
│ 2016-02-03 08:04:51 │     8 │ Frances    │ … │            │ 188511.28 │                      │ <svg><script>0<1>a…  │
│ 2016-02-03 08:12:33 │     9 │ Jason      │ … │ 7/29/1982  │ 238068.56 │ Web Designer III     │                      │
│ 2016-02-03 17:08:02 │    10 │ Carolyn    │ … │ 4/28/1977  │ 132718.26 │ Research Nurse       │                      │
│          ·          │     · │  ·         │ · │     ·      │     ·     │       ·              │          ·           │
│          ·          │     · │  ·         │ · │     ·      │     ·     │       ·              │          ·           │
│          ·          │     · │  ·         │ · │     ·      │     ·     │       ·              │          ·           │
│ 2016-02-04 04:48:13 │   991 │ Fred       │ … │ 1/25/1975  │ 280835.07 │ Cost Accountant      │                      │
│ 2016-02-04 00:03:33 │   992 │ Anna       │ … │ 5/29/1962  │ 286181.88 │ Automation Special…  │                      │
│ 2016-02-04 07:05:48 │   993 │ Donna      │ … │ 6/3/1962   │  245704.0 │ Senior Financial A…  │                      │
│ 2016-02-04 21:15:41 │   994 │ Annie      │ … │            │ 194931.47 │                      │                      │
│ 2016-02-04 05:05:12 │   995 │ Carlos     │ … │ 8/11/1986  │  39424.88 │ Teacher              │                      │
│ 2016-02-04 21:45:05 │   996 │ Stephanie  │ … │ 5/9/1962   │  273504.1 │ Chief Design Engin…  │                      │
│ 2016-02-04 09:20:21 │   997 │ Kathy      │ … │ 12/4/1986  │ 109525.48 │ Director of Sales    │                      │
│ 2016-02-04 00:26:05 │   998 │ Louis      │ … │ 11/20/1982 │  13134.47 │ Office Assistant IV  │                      │
│ 2016-02-04 04:50:33 │   999 │ Elizabeth  │ … │ 3/14/1976  │ 207194.65 │ Research Assistant I │                      │
│ 2016-02-04 16:14:42 │  1000 │ Susan      │ … │ 12/19/1999 │ 229961.89 │ Human Resources Ma…  │                      │
├─────────────────────┴───────┴────────────┴───┴────────────┴───────────┴──────────────────────┴──────────────────────┤
│ 5000 rows (20 shown)                                                                           13 columns (7 shown) │
└─────────────────────────────────────────────────────────────────────────────────────────────────────────────────────┘
…
